weight : 38892.246
len 19
MNGTEGPNFYVPFSNATGVVR : 2257.4822
SPFEYPQYYLAEPWQFSMLAAYMFLLIVLGFPINFLTLYVTVQHK : 5391.3027
K : 146.18774
LR : 287.35904
TPLNYILLNLAVADLFMVLGGFTSTLYTSLHGYFVFGPTGCNLEGFFATLGGEIALWSLVVLAIER : 7129.2534
YVVVCK : 709.89905
PMSNFR : 750.8686
FGENHAIMGVAFTWVMALACAAPPLAGWSR : 3175.711
YIPEGLQCSCGIDYYTLK : 2066.3572
PEVNNESFVIYMFVVHFTIPMIIIFFCYGQLVFTVK : 4287.117
EAAAQQQESATTQK : 1490.5294
AEK : 346.37958
EVTR : 503.55026
MVIIMVIAFLICWVPYASVAFYIFTHQGSNFGPIFMTIPAFFAK : 5004.0547
SAAIYNPVIYIMMNK : 1728.0879
QFR : 449.50415
NCMLTTICCGK : 1186.4994
NPLGDDEASATVSK : 1403.4484
TETSQVAPA : 902.94574
